/Users/tycho/workspace/rev/trms/src/main/java/models/beans/Approval.java
/Users/tycho/workspace/rev/trms/src/main/java/models/daos/DAOUtility.java
/Users/tycho/workspace/rev/trms/src/main/java/models/ApproverAction.java
/Users/tycho/workspace/rev/trms/src/main/java/models/beans/Employee.java
/Users/tycho/workspace/rev/trms/src/main/java/models/daos/EmployeeDAOImpl.java
/Users/tycho/workspace/rev/trms/src/main/java/models/daos/EmployeeDAO.java
/Users/tycho/workspace/rev/trms/src/main/java/models/beans/Reimbursement.java
/Users/tycho/workspace/rev/trms/src/main/java/models/daos/ReimbursementDAO.java
/Users/tycho/workspace/rev/trms/src/main/java/Main.java
